Case_Study_1
…
## -- Conflicts ------------------------------------------ tidyverse_conflicts() --
## x dplyr::filter() masks stats::filter()
## x dplyr::lag()    masks stats::lag()

library(ggplot2)
num_Breweries_by_state <- Breweries %>% group_by(State) %>% dplyr::summarise(count=n())

## `summarise()` ungrouping output (override with `.groups` argument)

num_Breweries_by_state

## # A tibble: 51 x 2
##    State count
##    <fct> <int>
##  1 AK        7
##  2 AL        3
##  3 AR        2
##  4 AZ       11
##  5 CA       39
##  6 CO       47
##  7 CT        8
##  8 DC        1
##  9 DE        2
## 10 FL       15
## # ... with 41 more rows
…
First plotted Median alcohol content by state, one with modified data set, and the other one with non-modified data set

Then plotted Median international bitterness unit for each state, both on the modified data set and non-modified

We can see between the modified data and non-modified data provides very different answers. If possible, going back to try to complete the missing data will make the graphics more accurate. But this is a random estimate of the actual value

#Compute and display Median of ABV and IBU by state:
median = completedData %>% group_by(State) %>%
  summarize(median_ABV=median(ABV),median_IBU=median(IBU))

## `summarise()` ungrouping output (override with `.groups` argument)

median

## # A tibble: 51 x 3
##    State median_ABV median_IBU
##    <fct>      <dbl>      <dbl>
##  1 AK        0.056        35  
##  2 AL        0.06         39.5
##  3 AR        0.052        72  
##  4 AZ        0.055        28  
##  5 CA        0.058        36  
##  6 CO        0.061        35  
##  7 CT        0.06         32  
##  8 DC        0.0625       75  
##  9 DE        0.0705       52  
## 10 FL        0.0555       36.5
## # ... with 41 more rows
…
